Bike_Share - BikeShare
…
y <- stringr::str_sub(hours_of_Riders[[1]],
                      start = -2,
                      end = -1) |>
    stringr::str_to_lower()

simpleTimes <- stringr::str_c(x, sep = " ", y)

hours_of_Riders[[1]] <- simpleTimes

hours_of_Riders

# A tibble: 24 × 3
   hour  Total_Riders index
   <chr>        <dbl> <int>
 1 12 am        42202     1
 2 1 am         25567     2
 3 2 am         14358     3
 4 3 am          8184     4
 5 4 am          8584     5
 6 5 am         33019     6
 7 6 am        100702     7
 8 7 am        187713     8
 9 8 am        233741     9
10 9 am        164160    10
# ℹ 14 more rows
…
flowData

# A tibble: 50 × 3
   from_station                      to_station                   n
   <chr>                             <chr>                    <dbl>
 1 Ellis Ave & 60th St               Ellis Ave & 55th St       6927
 2 Ellis Ave & 60th St               University Ave & 57th St  6600
 3 Ellis Ave & 55th St               Ellis Ave & 60th St       6349
 4 University Ave & 57th St          Ellis Ave & 60th St       6168
 5 Calumet Ave & 33rd St             State St & 33rd St        5417
 6 State St & 33rd St                Calumet Ave & 33rd St     5343
 7 DuSable Lake Shore Dr & Monroe St Streeter Dr & Grand Ave   4023
 8 Loomis St & Lexington St          Morgan St & Polk St       3719
 9 Morgan St & Polk St               Loomis St & Lexington St  3379
10 University Ave & 57th St          Kimbark Ave & 53rd St     3112
# ℹ 40 more rows
…
locationData

# A tibble: 1,487 × 5
   station_name trip_count first_date          last_date           avg_trip_time
   <chr>             <dbl> <dttm>              <dttm>                      <dbl>
 1 2112 W Pete…        546 2023-01-01 14:38:58 2023-12-31 11:40:34         15.8 
 2 410                   3 2023-04-27 08:02:30 2023-04-27 08:46:00         12.7 
 3 63rd St Bea…        648 2023-01-06 12:59:47 2023-12-29 13:31:47         30.6 
 4 900 W Harri…      10925 2023-01-01 02:18:29 2024-01-01 00:06:30          9.08
 5 Aberdeen St…      12888 2023-01-01 00:56:42 2023-12-31 22:15:30          9.85
 6 Aberdeen St…       8486 2023-01-01 08:08:19 2023-12-31 20:06:36         12.0 
 7 Aberdeen St…       9270 2023-01-01 12:39:37 2023-12-31 14:40:04         11.6 
 8 Ada St & 11…         19 2023-05-04 18:51:45 2023-11-29 17:03:52         13.8 
 9 Ada St & Wa…       5874 2023-01-01 06:56:37 2023-12-31 16:10:44         10.8 
10 Adler Plane…      12354 2023-01-01 07:42:32 2023-12-31 16:10:21         25.0 
# ℹ 1,477 more rows
…
