Bike-Sharing in the Streets of Chicago – BikeShare Analysis
…
Third, creates epiflow objects, which take in a pair of dataframes and creates the flows between them.
# for all the pairs
ef_test <- epiflows::make_epiflows(flows = flowData, locations = locationData_pivoted,
    num_cases = "trips_toAndfrom")

Tables

First, just a quick view of the flow data table we made earlier.
flowData

# A tibble: 50 × 3
   from_station                      to_station                   n
   <chr>                             <chr>                    <dbl>
 1 Ellis Ave & 60th St               Ellis Ave & 55th St       6927
 2 Ellis Ave & 60th St               University Ave & 57th St  6600
 3 Ellis Ave & 55th St               Ellis Ave & 60th St       6349
 4 University Ave & 57th St          Ellis Ave & 60th St       6168
 5 Calumet Ave & 33rd St             State St & 33rd St        5417
 6 State St & 33rd St                Calumet Ave & 33rd St     5343
 7 DuSable Lake Shore Dr & Monroe St Streeter Dr & Grand Ave   4023
 8 Loomis St & Lexington St          Morgan St & Polk St       3719
 9 Morgan St & Polk St               Loomis St & Lexington St  3379
10 University Ave & 57th St          Kimbark Ave & 53rd St     3112
# ℹ 40 more rows

Second, another quick view, but for thethe location data we pivoted earlier.
locationData_pivoted |>
    dplyr::arrange(desc(trips_toAndfrom))

# A tibble: 1,567 × 4
   allNames              trips_toAndfrom first_date          last_date          
   <chr>                           <dbl> <dttm>              <dttm>             
 1 Streeter Dr & Grand …           86422 2023-01-01 00:05:43 2024-01-01 00:19:01
 2 Kingsbury St & Kinzi…           61277 2023-01-01 01:21:59 2023-12-31 21:30:50
 3 DuSable Lake Shore D…           60808 2023-01-01 02:12:09 2023-12-31 23:34:53
 4 Clark St & Elm St               60552 2023-01-01 01:06:48 2023-12-31 23:29:33
 5 Clinton St & Washing…           58278 2023-01-01 00:44:39 2023-12-31 18:03:02
 6 Wells St & Concord Ln           57642 2023-01-01 01:15:27 2023-12-31 23:51:50
 7 Michigan Ave & Oak St           54000 2023-01-01 00:59:17 2023-12-31 23:09:35
 8 Wells St & Elm St               52315 2023-01-01 00:59:22 2023-12-31 23:51:48
 9 DuSable Lake Shore D…           48833 2023-01-01 00:14:47 2023-12-31 16:49:56
10 Theater on the Lake             48349 2023-01-01 03:14:22 2023-12-31 22:53:53
# ℹ 1,557 more rows
…
